Package Report

-----------------------------------------------------------------------------
Document:
Name: Nuvola NEW1.ai
Color Mode: CMYK color
Color Profile: none
Ruler Units: millimeters
Artboard Dimensions: 229,3056 mm x 160,1611 mm
Show Images in Outline Mode: OFF
Highlight Substituted Fonts: OFF
Highlight Substituted Glyphs: OFF
Preserve Text Editability
Simulate Colored Paper: OFF

-----------------------------------------------------------------------------
Spot Color Objects:

-----------------------------------------------------------------------------
Missing Fonts:NONE

-----------------------------------------------------------------------------
Protected Fonts that were not packaged:NONE

-----------------------------------------------------------------------------
Fonts:
Typo Hoop Demo Bold (OTF)

-----------------------------------------------------------------------------
Embedded Fonts:
NONE

-----------------------------------------------------------------------------
Missing Links:
NONE

-----------------------------------------------------------------------------
Linked Images:
NONE